BST 260 Introduction to Data Science - 6 Tidyverse
…
murders |> summarize(median_min_max(population))

   median    min      max
1 4339367 563626 37253956

6.6.2 Group then summarize with group_by

Let’s compute murder rate by region.

Take a close look at this output? How is it different than the original?

murders |> group_by(region)

# A tibble: 51 × 6
# Groups:   region [4]
   state                abb   region    population total  rate
   <chr>                <chr> <fct>          <dbl> <dbl> <dbl>
 1 Alabama              AL    South        4779736   135  2.82
 2 Alaska               AK    West          710231    19  2.68
 3 Arizona              AZ    West         6392017   232  3.63
 4 Arkansas             AR    South        2915918    93  3.19
 5 California           CA    West        37253956  1257  3.37
 6 Colorado             CO    West         5029196    65  1.29
 7 Connecticut          CT    Northeast    3574097    97  2.71
 8 Delaware             DE    South         897934    38  4.23
 9 District of Columbia DC    South         601723    99 16.5 
10 Florida              FL    South       19687653   669  3.40
# ℹ 41 more rows
…
6.7 ungroup

You can also summarize a variable but not collapse the dataset. We use mutate instead of summarize. Here is an example where we add a column with the population in each region and the number of states in the region, shown for each state. When we do this, we usually want to ungroup before continuing our analysis.

murders |> group_by(region) |> 
  mutate(region_pop = sum(population), n = n()) |>
  ungroup()

# A tibble: 51 × 8
   state                abb   region    population total  rate region_pop     n
   <chr>                <chr> <fct>          <dbl> <dbl> <dbl>      <dbl> <int>
 1 Alabama              AL    South        4779736   135  2.82  115674434    17
 2 Alaska               AK    West          710231    19  2.68   71945553    13
 3 Arizona              AZ    West         6392017   232  3.63   71945553    13
 4 Arkansas             AR    South        2915918    93  3.19  115674434    17
 5 California           CA    West        37253956  1257  3.37   71945553    13
 6 Colorado             CO    West         5029196    65  1.29   71945553    13
 7 Connecticut          CT    Northeast    3574097    97  2.71   55317240     9
 8 Delaware             DE    South         897934    38  4.23  115674434    17
 9 District of Columbia DC    South         601723    99 16.5   115674434    17
10 Florida              FL    South       19687653   669  3.40  115674434    17
# ℹ 41 more rows
…
