BST 260 Introduction to Data Science - 13 Wrangling
…
We will go over data wrangling tasks that we will need to facilitate this data analysis: reshaping data, joining tables, and string processing.

13.1 Reshaping data

library(tidyverse) 
library(dslabs)
path <- system.file("extdata", package = "dslabs")
filename <- file.path(path, "fertility-two-countries-example.csv")
wide_data <- read_csv(filename)

13.1.1 pivot_longer

wide_data |> pivot_longer(`1960`:`2015`)

# A tibble: 112 × 3
   country name  value
   <chr>   <chr> <dbl>
 1 Germany 1960   2.41
 2 Germany 1961   2.44
 3 Germany 1962   2.47
 4 Germany 1963   2.49
 5 Germany 1964   2.49
 6 Germany 1965   2.48
 7 Germany 1966   2.44
 8 Germany 1967   2.37
 9 Germany 1968   2.28
10 Germany 1969   2.17
# ℹ 102 more rows
…
[1] "1960_fertility"       "1960_life_expectancy" "1961_fertility"      
[4] "1961_life_expectancy" "1962_fertility"      

Encoding multiple variables in a column name is such a common problem that the readr package includes a function to separate these columns into two or more. Apart from the data, the separate function takes three arguments: the name of the column to be separated, the names to be used for the new columns, and the character that separates the variables. So, a first attempt at this is:

dat |> separate(name, c("year", "name"), "_")

Because _ is the default separator assumed by separate, we do not have to include it in the code:

dat |> separate(name, c("year", "name"))

Warning: Expected 2 pieces. Additional pieces discarded in 112 rows [2, 4, 6, 8, 10, 12,
14, 16, 18, 20, 22, 24, 26, 28, 30, 32, 34, 36, 38, 40, ...].

# A tibble: 224 × 4
   country year  name      value
   <chr>   <chr> <chr>     <dbl>
 1 Germany 1960  fertility  2.41
 2 Germany 1960  life      69.3 
 3 Germany 1961  fertility  2.44
 4 Germany 1961  life      69.8 
 5 Germany 1962  fertility  2.47
 6 Germany 1962  life      70.0 
 7 Germany 1963  fertility  2.49
 8 Germany 1963  life      70.1 
 9 Germany 1964  fertility  2.49
10 Germany 1964  life      70.7 
# ℹ 214 more rows

We get a warning. Here we tell it to fill the column on the right:

var_names <- c("year", "first_variable_name", "second_variable_name")
dat |> separate(name, var_names, fill = "right")

# A tibble: 224 × 5
   country year  first_variable_name second_variable_name value
   <chr>   <chr> <chr>               <chr>                <dbl>
 1 Germany 1960  fertility           <NA>                  2.41
 2 Germany 1960  life                expectancy           69.3 
 3 Germany 1961  fertility           <NA>                  2.44
 4 Germany 1961  life                expectancy           69.8 
 5 Germany 1962  fertility           <NA>                  2.47
 6 Germany 1962  life                expectancy           70.0 
 7 Germany 1963  fertility           <NA>                  2.49
 8 Germany 1963  life                expectancy           70.1 
 9 Germany 1964  fertility           <NA>                  2.49
10 Germany 1964  life                expectancy           70.7 
# ℹ 214 more rows

However, if we read the separate help file, we find that a better approach is to merge the last two variables when there is an extra separation:

dat |> separate(name, c("year", "name"), extra = "merge")

# A tibble: 224 × 4
   country year  name            value
   <chr>   <chr> <chr>           <dbl>
 1 Germany 1960  fertility        2.41
 2 Germany 1960  life_expectancy 69.3 
 3 Germany 1961  fertility        2.44
 4 Germany 1961  life_expectancy 69.8 
 5 Germany 1962  fertility        2.47
 6 Germany 1962  life_expectancy 70.0 
 7 Germany 1963  fertility        2.49
 8 Germany 1963  life_expectancy 70.1 
 9 Germany 1964  fertility        2.49
10 Germany 1964  life_expectancy 70.7 
# ℹ 214 more rows
…
The data is now in tidy format with one row for each observation with three variables: year, fertility, and life expectancy.

13.1.4 unite

It is sometimes useful to do the inverse of separate, unite two columns into one. To demonstrate how to use unite, we show code that, although not the optimal approach, serves as an illustration. Suppose that we did not know about extra and used this command to separate:

var_names <- c("year", "first_variable_name", "second_variable_name")
dat |> 
  separate(name, var_names, fill = "right")

# A tibble: 224 × 5
   country year  first_variable_name second_variable_name value
   <chr>   <chr> <chr>               <chr>                <dbl>
 1 Germany 1960  fertility           <NA>                  2.41
 2 Germany 1960  life                expectancy           69.3 
 3 Germany 1961  fertility           <NA>                  2.44
 4 Germany 1961  life                expectancy           69.8 
 5 Germany 1962  fertility           <NA>                  2.47
 6 Germany 1962  life                expectancy           70.0 
 7 Germany 1963  fertility           <NA>                  2.49
 8 Germany 1963  life                expectancy           70.1 
 9 Germany 1964  fertility           <NA>                  2.49
10 Germany 1964  life                expectancy           70.7 
# ℹ 214 more rows

We can achieve the same final result by uniting the second and third columns, then pivoting the columns and renaming fertility_NA to fertility:

dat |> 
  separate(name, var_names, fill = "right") |>
  unite(name, first_variable_name, second_variable_name) |>
  pivot_wider() |>
  rename(fertility = fertility_NA)

# A tibble: 112 × 4
   country year  fertility life_expectancy
   <chr>   <chr>     <dbl>           <dbl>
 1 Germany 1960       2.41            69.3
 2 Germany 1961       2.44            69.8
 3 Germany 1962       2.47            70.0
 4 Germany 1963       2.49            70.1
 5 Germany 1964       2.49            70.7
 6 Germany 1965       2.48            70.6
 7 Germany 1966       2.44            70.8
 8 Germany 1967       2.37            71.0
 9 Germany 1968       2.28            70.6
10 Germany 1969       2.17            70.5
# ℹ 102 more rows
…
