BST 260 Introduction to Data Science - 16 Text mining
…
Now we are now ready to extract the words for all our tweets.

tweet_words <- campaign_tweets |> 
  mutate(text = str_replace_all(text, links, ""))  |>
  unnest_tokens(word, text)

And we can now answer questions such as “what are the most commonly used words?”:

tweet_words |> 
  count(word) |>
  arrange(desc(n))

# A tibble: 6,264 × 2
   word      n
   <chr> <int>
 1 the    2330
 2 to     1413
 3 and    1245
 4 in     1190
 5 i      1151
 6 a      1121
 7 you     999
 8 of      982
 9 is      944
10 on      880
# ℹ 6,254 more rows

It is not surprising that these are the top words. The top words are not informative. The tidytext package has a database of these commonly used words, referred to as stop words, in text mining:

stop_words

# A tibble: 1,149 × 2
   word        lexicon
   <chr>       <chr>  
 1 a           SMART  
 2 a's         SMART  
 3 able        SMART  
 4 about       SMART  
 5 above       SMART  
 6 according   SMART  
 7 accordingly SMART  
 8 across      SMART  
 9 actually    SMART  
10 after       SMART  
# ℹ 1,139 more rows
…
For each word, we want to know if it is more likely to come from an Android tweet or an iPhone tweet. We therefore compute, for each word, what proportion of all words it represent for Android and iPhone, respectively.

android_vs_iphone <- tweet_words |>
  count(word, source) |>
  pivot_wider(names_from = "source", values_from = "n", values_fill = 0) |>
  mutate(p_a = Android / sum(Android), p_i = iPhone / sum(iPhone),
         percent_diff = (p_a - p_i) / ((p_a + p_i)/2) * 100)

For words appearing at least 100 times in total, here are the highest percent differences for Android

android_vs_iphone |> filter(Android + iPhone >= 100) |>
  arrange(desc(percent_diff))

# A tibble: 30 × 6
   word        Android iPhone     p_a     p_i percent_diff
   <chr>         <int>  <int>   <dbl>   <dbl>        <dbl>
 1 bad             104     26 0.00645 0.00188        110. 
 2 crooked         156     49 0.00968 0.00354         92.9
 3 cnn             116     37 0.00720 0.00267         91.7
 4 ted              86     28 0.00533 0.00202         90.1
 5 interviewed      76     25 0.00471 0.00180         89.3
 6 media            78     26 0.00484 0.00188         88.2
 7 cruz            115     46 0.00713 0.00332         72.9
 8 hillary         290    117 0.0180  0.00845         72.2
 9 win              74     30 0.00459 0.00217         71.8
10 president        84     35 0.00521 0.00253         69.4
# ℹ 20 more rows

and the top for iPhone:

android_vs_iphone |> filter(Android + iPhone >= 100) |> 
  arrange(percent_diff)

# A tibble: 30 × 6
   word                  Android iPhone       p_a     p_i percent_diff
   <chr>                   <int>  <int>     <dbl>   <dbl>        <dbl>
 1 makeamericagreatagain       0    298 0         0.0215       -200   
 2 join                        1    157 0.0000620 0.0113       -198.  
 3 trump2016                   3    412 0.000186  0.0297       -198.  
 4 tomorrow                   24    101 0.00149   0.00729      -132.  
 5 vote                       46     67 0.00285   0.00484       -51.6 
 6 america                   114    141 0.00707   0.0102        -36.0 
 7 tonight                    70     84 0.00434   0.00606       -33.1 
 8 iowa                       62     65 0.00385   0.00469       -19.8 
 9 poll                      117    103 0.00726   0.00744        -2.43
10 trump                     112     92 0.00695   0.00664         4.49
# ℹ 20 more rows
…
So we do see some differences and the order is interesting: the largest three sentiments are disgust, anger, and negative!

If we are interested in exploring which specific words are driving these differences, we can refer back to our android_iphone_or object:

android_vs_iphone |> inner_join(nrc, by = "word") |>
  filter(sentiment == "disgust") |>
  arrange(desc(percent_diff))

# A tibble: 157 × 7
   word      Android iPhone       p_a   p_i percent_diff sentiment
   <chr>       <int>  <int>     <dbl> <dbl>        <dbl> <chr>    
 1 abuse           1      0 0.0000620     0          200 disgust  
 2 angry          10      0 0.000620      0          200 disgust  
 3 arrogant        2      0 0.000124      0          200 disgust  
 4 attacking       5      0 0.000310      0          200 disgust  
 5 belittle        2      0 0.000124      0          200 disgust  
 6 blame           1      0 0.0000620     0          200 disgust  
 7 bleeding        1      0 0.0000620     0          200 disgust  
 8 bombed          5      0 0.000310      0          200 disgust  
 9 clumsy          1      0 0.0000620     0          200 disgust  
10 crushed         1      0 0.0000620     0          200 disgust  
# ℹ 147 more rows
…
