BST 260 Introduction to Data Science - 19 Models
…
results <- polls_us_election_2016 |>
  filter(state!="U.S." & 
           !grepl("CD", state) & 
           enddate >="2016-10-31" & 
           (grade %in% c("A+","A","A-","B+") | is.na(grade))) |>
  mutate(spread = rawpoll_clinton/100 - rawpoll_trump/100) |>
  group_by(state) |>
  summarize(avg = mean(spread), sd = sd(spread), n = n()) |>
  mutate(state = as.character(state))

Here are the five closest races according to the polls:

results |> arrange(abs(avg))

# A tibble: 47 × 4
   state               avg     sd     n
   <chr>             <dbl>  <dbl> <int>
 1 Florida         0.00356 0.0163     7
 2 North Carolina -0.0073  0.0306     9
 3 Ohio           -0.0104  0.0252     6
 4 Nevada          0.0169  0.0441     7
 5 Iowa           -0.0197  0.0437     3
 6 Michigan        0.0209  0.0203     6
 7 Arizona        -0.0326  0.0270     9
 8 Pennsylvania    0.0353  0.0116     9
 9 New Mexico      0.0389  0.0226     6
10 Georgia        -0.0448  0.0238     4
# ℹ 37 more rows
…
Because we can’t estimate the standard deviation for states with just one poll, we will estimate it as the median of the standard deviations estimated for states with more than one poll:

results <- results |>
  mutate(sd = ifelse(is.na(sd), median(results$sd, na.rm = TRUE), sd))

To make probabilistic arguments, we will use a Monte Carlo simulation. For each state, we apply the Bayesian approach to generate an election day \(\mu\). We could construct the priors for each state based on recent history. However, to keep it simple, we assign a prior to each state that assumes we know nothing about what will happen. Since from election year to election year the results from a specific state don’t change that much, we will assign a standard deviation of 2% or \(\tau=0.02\). For now, we will assume, incorrectly, that the poll results from each state are independent. The code for the Bayesian calculation under these assumptions looks like this:

mu <- 0
tau <- 0.02
results |> mutate(sigma = sd/sqrt(n), 
                   B = sigma^2 / (sigma^2 + tau^2),
                   posterior_mean = B * mu + (1 - B) * avg,
                   posterior_se = sqrt(1/ (1/sigma^2 + 1/tau^2)))

# A tibble: 47 × 12
   state          avg      sd     n electoral_votes clinton trump others   sigma
   <chr>        <dbl>   <dbl> <int>           <int>   <dbl> <dbl>  <dbl>   <dbl>
 1 Alabama   -0.149   2.53e-2     3               9    34.4  62.1    3.6 1.46e-2
 2 Arizona   -0.0326  2.70e-2     9              11    45.1  48.7    6.2 8.98e-3
 3 Arkansas  -0.151   9.90e-4     2               6    33.7  60.6    5.8 7.00e-4
 4 Californ…  0.260   3.87e-2     5              55    61.7  31.6    6.7 1.73e-2
 5 Colorado   0.0452  2.95e-2     7               9    48.2  43.3    8.6 1.11e-2
 6 Connecti…  0.0780  2.11e-2     3               7    54.6  40.9    4.5 1.22e-2
 7 Delaware   0.132   3.35e-2     2               3    53.4  41.9    4.7 2.37e-2
 8 Florida    0.00356 1.63e-2     7              29    47.8  49      3.2 6.18e-3
 9 Georgia   -0.0448  2.38e-2     4              16    45.9  51      3.1 1.19e-2
10 Hawaii     0.186   2.10e-2     1               4    62.2  30      7.7 2.10e-2
# ℹ 37 more rows
# ℹ 3 more variables: B <dbl>, posterior_mean <dbl>, posterior_se <dbl>
…
