BST 260 Introduction to Data Science - 24 Association is not causation
…
The first column denotes group. We created groups and for each one we generated a pair of independent vectors, \(X\) and \(Y\), with 25 observations each, stored in the second and third columns. Because we constructed the simulation, we know that \(X\) and \(Y\) are not correlated.

Next, we compute the correlation between X and Y for each group and look at the max:

res <- sim_data |> 
  group_by(group) |> 
  summarize(r = cor(x, y)) |> 
  arrange(desc(r))
res

# A tibble: 1,000,000 × 2
    group     r
    <int> <dbl>
 1 250839 0.812
 2 117437 0.783
 3 711908 0.776
 4 667042 0.775
 5 953055 0.773
 6 146868 0.760
 7 529114 0.758
 8 477932 0.751
 9 135819 0.748
10 189486 0.742
# ℹ 999,990 more rows
…
